4 Reading and Saving data in R – Fundamentals of Linear Models 2025-2026: Workbook
…
4.2.5 Data from SPSS

The haven package can be used to read directly .sav files from SPSS.

As an example again, let’s open a file saved in SPSS from another ERP (Event Related Potential) study of code-switching in Dutch.

# If not yet available, install the package using install.packages("haven")

# Load library
library(haven)

data_sample_spss <- read_sav("./data/EEG_DataSet_LongFormat_pablos.sav")
data_sample_spss

# A tibble: 7,936 × 6
   Participant Language CS    Congruency Electrode Amplitude
         <dbl> <chr>    <chr> <chr>      <chr>         <dbl>
 1           7 Dutch    no_CS congruent  Fp1           0.712
 2           7 Dutch    no_CS congruent  AF3           0.313
 3           7 Dutch    no_CS congruent  F7            0.982
 4           7 Dutch    no_CS congruent  F3            0.587
 5           7 Dutch    no_CS congruent  FC1           0.711
 6           7 Dutch    no_CS congruent  FC5           2.83 
 7           7 Dutch    no_CS congruent  T7            2.10 
 8           7 Dutch    no_CS congruent  C3            1.91 
 9           7 Dutch    no_CS congruent  CP1           2.10 
10           7 Dutch    no_CS congruent  CP5           2.28 
# ℹ 7,926 more rows
…
